11/03/21 20:40

image_segmentation.py has not been modified yet

-------------------------------------------------------------------------------

11/06/21 13:12

image_segmentation.py has not been modified yet

-------------------------------------------------------------------------------

11/09/21 16:47

Problem 1 (5 points):
Score += 5

Problem 2 (10 points):
Score += 10

Problem 3 (5 points):
Score += 5

Problem 4 (10 points):
Score += 10

Problem 5 (10 points):
Score += 10

Problem 6 (5 points):
Score += 5

Code Quality (5 points):
comment your code
Score += 2

Total score: 47/50 = 94.0%

Great job!

-------------------------------------------------------------------------------

